simulation.vcd
$date
	Sat May 21 19:05:22 2022
$end
$version
	ModelSim Version 6.5b
$end
$timescale
	1ps
$end
$scope module DEMO_TB_RIP $end
$var wire 1 ! cout $end
$var wire 1 " s [3] $end
$var wire 1 # s [2] $end
$var wire 1 $ s [1] $end
$var wire 1 % s [0] $end
$var reg 4 & a [3:0] $end
$var reg 4 ' b [3:0] $end
$var reg 1 ( cin $end
$var reg 1 ) s_op $end
$upscope $end
$enddefinitions $end
#0
$dumpvars
b1 &
b1 '
0(
0)
x!
x%
x$
x#
x"
$end
#10
b10 &
1(
1)
#15
1%
#20
0%
#25
1%
0!
#30
0$
1"
#40
x"
0#
#50
x!
#55
0"
#65
1!
